{
    "id" : "net.codelogistics.tunnel",
    "runtime" : "org.gnome.Platform",
    "runtime-version" : "46",
    "sdk" : "org.gnome.Sdk",
    "command" : "tunnel",
    "finish-args" : [
        "--share=network",
        "--share=ipc",
        "--socket=fallback-x11",
        "--device=dri",
        "--socket=wayland",
        "--socket=pulseaudio"
    ],
    "cleanup" : [
        "/include",
        "/lib/pkgconfig",
        "/man",
        "/share/doc",
        "/share/gtk-doc",
        "/share/man",
        "/share/pkgconfig",
        "*.la",
        "*.a"
    ],
    "modules" : [
        {
            "name": "python3-requests",
            "buildsystem": "simple",
            "build-commands": [
                "pip3 install --verbose --exists-action=i --no-index --find-links=\"file://${PWD}\" --prefix=${FLATPAK_DEST} \"requests\" --no-build-isolation"
            ],
            "sources": [
                {
                    "type": "file",
                    "url": "https://files.pythonhosted.org/packages/ba/06/a07f096c664aeb9f01624f858c3add0a4e913d6c96257acb4fce61e7de14/certifi-2024.2.2-py3-none-any.whl",
                    "sha256": "dc383c07b76109f368f6106eee2b593b04a011ea4d55f652c6ca24a754d1cdd1",
                    "x-checker-data": {
                        "type": "pypi",
                        "name": "certifi",
                        "packagetype": "bdist_wheel"
                    }
                },
                {
                    "type": "file",
                    "url": "https://files.pythonhosted.org/packages/63/09/c1bc53dab74b1816a00d8d030de5bf98f724c52c1635e07681d312f20be8/charset-normalizer-3.3.2.tar.gz",
                    "sha256": "f30c3cb33b24454a82faecaf01b19c18562b1e89558fb6c56de4d9118a032fd5",
                    "x-checker-data": {
                        "type": "pypi",
                        "name": "charset-normalizer"
                    }
                },
                {
                    "type": "file",
                    "url": "https://files.pythonhosted.org/packages/e5/3e/741d8c82801c347547f8a2a06aa57dbb1992be9e948df2ea0eda2c8b79e8/idna-3.7-py3-none-any.whl",
                    "sha256": "82fee1fc78add43492d3a1898bfa6d8a904cc97d8427f683ed8e798d07761aa0",
                    "x-checker-data": {
                        "type": "pypi",
                        "name": "idna",
                        "packagetype": "bdist_wheel"
                    }
                },
                {
                    "type": "file",
                    "url": "https://files.pythonhosted.org/packages/c3/20/748e38b466e0819491f0ce6e90ebe4184966ee304fe483e2c414b0f4ef07/requests-2.32.2-py3-none-any.whl",
                    "sha256": "fc06670dd0ed212426dfeb94fc1b983d917c4f9847c863f313c9dfaaffb7c23c",
                    "x-checker-data": {
                        "type": "pypi",
                        "name": "requests",
                        "packagetype": "bdist_wheel"
                    }
                },
                {
                    "type": "file",
                    "url": "https://files.pythonhosted.org/packages/a2/73/a68704750a7679d0b6d3ad7aa8d4da8e14e151ae82e6fee774e6e0d05ec8/urllib3-2.2.1-py3-none-any.whl",
                    "sha256": "450b20ec296a467077128bff42b73080516e71b56ff59a60a02bef2232c4fa9d",
                    "x-checker-data": {
                        "type": "pypi",
                        "name": "urllib3",
                        "packagetype": "bdist_wheel"
                    }
                }
            ]
        },
        {
            "name" : "tunnel",
            "builddir" : true,
            "buildsystem" : "meson",
            "sources" : [
                {
                    "type" : "dir",
                    "url" : "../"
                }
            ]
        }
    ]
}
